<svg width="16" height="16" viewBox="0 0 16 16" fill="none" xmlns="http://www.w3.org/2000/svg">
<path d="M13.9998 8.12267V2.66667C13.9998 2.48986 13.9296 2.32029 13.8046 2.19526C13.6796 2.07024 13.51 2 13.3332 2C13.1564 2 12.9868 2.07024 12.8618 2.19526C12.7367 2.32029 12.6665 2.48986 12.6665 2.66667V3.33333H3.33317V2.66667C3.33317 2.48986 3.26293 2.32029 3.13791 2.19526C3.01288 2.07024 2.84331 2 2.6665 2C2.48969 2 2.32012 2.07024 2.1951 2.19526C2.07008 2.32029 1.99984 2.48986 1.99984 2.66667V8.12267C1.61123 8.26006 1.27456 8.51415 1.0359 8.8502C0.797226 9.18625 0.668213 9.58783 0.666504 10V13.3333C0.666504 13.5101 0.736742 13.6797 0.861766 13.8047C0.98679 13.9298 1.15636 14 1.33317 14C1.50998 14 1.67955 13.9298 1.80458 13.8047C1.9296 13.6797 1.99984 13.5101 1.99984 13.3333V12.6667H13.9998V13.3333C13.9998 13.5101 14.0701 13.6797 14.1951 13.8047C14.3201 13.9298 14.4897 14 14.6665 14C14.8433 14 15.0129 13.9298 15.1379 13.8047C15.2629 13.6797 15.3332 13.5101 15.3332 13.3333V10C15.3315 9.58783 15.2024 9.18625 14.9638 8.8502C14.7251 8.51415 14.3884 8.26006 13.9998 8.12267ZM12.6665 8H11.9998V6.66667C11.9998 6.48986 11.9296 6.32029 11.8046 6.19526C11.6796 6.07024 11.51 6 11.3332 6H4.6665C4.48969 6 4.32012 6.07024 4.1951 6.19526C4.07008 6.32029 3.99984 6.48986 3.99984 6.66667V8H3.33317V4.66667H12.6665V8ZM5.33317 8V7.33333H7.33317V8H5.33317ZM8.6665 7.33333H10.6665V8H8.6665V7.33333ZM1.99984 10C1.99984 9.82319 2.07008 9.65362 2.1951 9.5286C2.32012 9.40357 2.48969 9.33333 2.6665 9.33333H13.3332C13.51 9.33333 13.6796 9.40357 13.8046 9.5286C13.9296 9.65362 13.9998 9.82319 13.9998 10V11.3333H1.99984V10Z" fill="#344054"/>
</svg>
