<svg width="18" height="18" viewBox="0 0 18 18" fill="none" xmlns="http://www.w3.org/2000/svg">
<path d="M17.25 12.75C17.25 12.1567 17.0741 11.5766 16.7444 11.0833C16.4148 10.5899 15.9462 10.2054 15.3981 9.97836C14.8499 9.7513 14.2467 9.69189 13.6647 9.80764C13.0828 9.9234 12.5482 10.2091 12.1287 10.6287C11.7091 11.0482 11.4234 11.5828 11.3076 12.1647C11.1919 12.7467 11.2513 13.3499 11.4784 13.8981C11.7054 14.4462 12.0899 14.9148 12.5833 15.2444C13.0766 15.5741 13.6567 15.75 14.25 15.75C15.0456 15.75 15.8087 15.4339 16.3713 14.8713C16.9339 14.3087 17.25 13.5457 17.25 12.75ZM14.25 14.25C13.9533 14.25 13.6633 14.162 13.4166 13.9972C13.17 13.8324 12.9777 13.5981 12.8642 13.324C12.7506 13.0499 12.7209 12.7483 12.7788 12.4574C12.8367 12.1664 12.9796 11.8991 13.1893 11.6893C13.3991 11.4796 13.6664 11.3367 13.9574 11.2788C14.2483 11.2209 14.5499 11.2506 14.824 11.3642C15.0981 11.4777 15.3324 11.67 15.4972 11.9166C15.662 12.1633 15.75 12.4533 15.75 12.75C15.75 13.1478 15.592 13.5294 15.3107 13.8107C15.0294 14.092 14.6478 14.25 14.25 14.25ZM3.75 15.75C4.34334 15.75 4.92336 15.5741 5.41671 15.2444C5.91006 14.9148 6.29458 14.4462 6.52164 13.8981C6.7487 13.3499 6.80811 12.7467 6.69236 12.1647C6.5766 11.5828 6.29088 11.0482 5.87132 10.6287C5.45176 10.2091 4.91721 9.9234 4.33527 9.80764C3.75333 9.69189 3.15013 9.7513 2.60195 9.97836C2.05377 10.2054 1.58524 10.5899 1.25559 11.0833C0.925947 11.5766 0.75 12.1567 0.75 12.75C0.75 13.5457 1.06607 14.3087 1.62868 14.8713C2.19129 15.4339 2.95435 15.75 3.75 15.75ZM3.75 11.25C4.04667 11.25 4.33668 11.338 4.58336 11.5028C4.83003 11.6676 5.02229 11.9019 5.13582 12.176C5.24935 12.4501 5.27906 12.7517 5.22118 13.0426C5.1633 13.3336 5.02044 13.6009 4.81066 13.8107C4.60088 14.0204 4.33361 14.1633 4.04264 14.2212C3.75166 14.2791 3.45006 14.2494 3.17597 14.1358C2.90189 14.0223 2.66762 13.83 2.5028 13.5834C2.33797 13.3367 2.25 13.0467 2.25 12.75C2.25 12.3522 2.40804 11.9706 2.68934 11.6893C2.97064 11.408 3.35218 11.25 3.75 11.25ZM11.7802 4.71975L13.8105 6.75H15C15.1989 6.75 15.3897 6.82902 15.5303 6.96967C15.671 7.11032 15.75 7.30109 15.75 7.5C15.75 7.69891 15.671 7.88968 15.5303 8.03033C15.3897 8.17098 15.1989 8.25 15 8.25H13.5C13.3011 8.24996 13.1104 8.17091 12.9697 8.03025L11.25 6.3105L8.5605 9L9.53025 9.96975C9.67091 10.1104 9.74996 10.3011 9.75 10.5V13.5C9.75 13.6989 9.67098 13.8897 9.53033 14.0303C9.38968 14.171 9.19891 14.25 9 14.25C8.80109 14.25 8.61032 14.171 8.46967 14.0303C8.32902 13.8897 8.25 13.6989 8.25 13.5V10.8105L6.96975 9.53025C6.82915 9.3896 6.75016 9.19887 6.75016 9C6.75016 8.80113 6.82915 8.6104 6.96975 8.46975L10.7198 4.71975C10.8604 4.57915 11.0511 4.50016 11.25 4.50016C11.4489 4.50016 11.6396 4.57915 11.7802 4.71975ZM13.5 4.5C13.2033 4.5 12.9133 4.41203 12.6666 4.24721C12.42 4.08238 12.2277 3.84812 12.1142 3.57403C12.0006 3.29994 11.9709 2.99834 12.0288 2.70737C12.0867 2.41639 12.2296 2.14912 12.4393 1.93934C12.6491 1.72956 12.9164 1.5867 13.2074 1.52882C13.4983 1.47094 13.7999 1.50065 14.074 1.61418C14.3481 1.72771 14.5824 1.91997 14.7472 2.16665C14.912 2.41332 15 2.70333 15 3C15 3.39783 14.842 3.77936 14.5607 4.06066C14.2794 4.34197 13.8978 4.5 13.5 4.5Z" fill="#344054"/>
</svg>
