<svg width="40" height="40" viewBox="0 0 40 40" fill="none" xmlns="http://www.w3.org/2000/svg">
<rect width="40" height="40" rx="8" fill="#FCCEBA" fill-opacity="0.08"/>
<g clip-path="url(#clip0_1802_1929)">
<path d="M29.0749 26.1905L28.8671 26.0072C28.2776 25.482 27.7617 24.8797 27.3332 24.2167C26.8652 23.3016 26.5848 22.3022 26.5082 21.2772V18.2583C26.5123 16.6484 25.9283 15.0925 24.866 13.8828C23.8037 12.6731 22.3363 11.8929 20.7393 11.6889V10.9006C20.7393 10.6842 20.6534 10.4767 20.5004 10.3237C20.3474 10.1707 20.1399 10.0847 19.9235 10.0847C19.7071 10.0847 19.4996 10.1707 19.3466 10.3237C19.1936 10.4767 19.1077 10.6842 19.1077 10.9006V11.7011C17.525 11.9198 16.0753 12.7047 15.027 13.9103C13.9787 15.116 13.4028 16.6607 13.406 18.2583V21.2772C13.3295 22.3022 13.049 23.3016 12.581 24.2167C12.1599 24.8781 11.6522 25.4803 11.0715 26.0072L10.8638 26.1905V27.9139H29.0749V26.1905Z" fill="#FF8855"/>
<path d="M18.3623 28.5555C18.4159 28.9429 18.6078 29.2978 18.9027 29.5547C19.1976 29.8116 19.5754 29.9531 19.9665 29.9531C20.3575 29.9531 20.7354 29.8116 21.0302 29.5547C21.3251 29.2978 21.517 28.9429 21.5706 28.5555H18.3623Z" fill="#FF8855"/>
</g>
<defs>
<clipPath id="clip0_1802_1929">
<rect width="22" height="22" fill="white" transform="translate(9 9)"/>
</clipPath>
</defs>
</svg>
