<svg width="18" height="22" viewBox="0 0 18 22" fill="none" xmlns="http://www.w3.org/2000/svg">
<path d="M7.00012 20H11.0001C11.0001 20.5304 10.7894 21.0391 10.4143 21.4142C10.0393 21.7893 9.53055 22 9.00012 22C8.46968 22 7.96098 21.7893 7.5859 21.4142C7.21083 21.0391 7.00012 20.5304 7.00012 20ZM0.0761159 17.383C0.000411086 17.2002 -0.0193799 16.9991 0.0192471 16.8051C0.0578741 16.6111 0.153183 16.4328 0.293116 16.293L2.00012 14.586V9C2.00333 7.3185 2.61121 5.69424 3.71276 4.42379C4.8143 3.15334 6.33604 2.32145 8.00012 2.08V1C8.00012 0.734784 8.10547 0.48043 8.29301 0.292893C8.48055 0.105357 8.7349 0 9.00012 0C9.26533 0 9.51969 0.105357 9.70722 0.292893C9.89476 0.48043 10.0001 0.734784 10.0001 1V2.08C11.6642 2.32145 13.1859 3.15334 14.2875 4.42379C15.389 5.69424 15.9969 7.3185 16.0001 9V14.586L17.7071 16.293C17.8469 16.4329 17.9421 16.611 17.9807 16.805C18.0193 16.9989 17.9995 17.2 17.9238 17.3827C17.8481 17.5654 17.72 17.7215 17.5556 17.8314C17.3912 17.9413 17.1979 18 17.0001 18H1.00012C0.80235 18 0.60901 17.9415 0.444541 17.8316C0.280072 17.7218 0.15186 17.5657 0.0761159 17.383ZM3.41412 16H14.5861L14.2931 15.707C14.1056 15.5195 14.0002 15.2652 14.0001 15V9C14.0001 7.67392 13.4733 6.40215 12.5357 5.46447C11.598 4.52678 10.3262 4 9.00012 4C7.67403 4 6.40226 4.52678 5.46458 5.46447C4.5269 6.40215 4.00012 7.67392 4.00012 9V15C4.00006 15.2652 3.89467 15.5195 3.70712 15.707L3.41412 16Z" fill="#FB6514"/>
</svg>
