{
  "project_info": {
    "project_number": "537766565560",
    "project_id": "embolsyn-ea78b",
    "storage_bucket": "embolsyn-ea78b.appspot.com"
  },
  "client": [
    {
      "client_info": {
        "mobilesdk_app_id": "1:537766565560:android:bbedf3fc8f4d79e97b464d",
        "android_client_info": {
          "package_name": "com.thousand.embolsyn"
        }
      },
      "oauth_client": [
        {
          "client_id": "537766565560-l6n3nni0hv7buvrlk8havd2m4nkcp8in.apps.googleusercontent.com",
          "client_type": 3
        }
      ],
      "api_key": [
        {
          "current_key": "AIzaSyBNQb-sKT0w3PZcFMPdkPDWkPSxaigpvNU"
        }
      ],
      "services": {
        "appinvite_service": {
          "other_platform_oauth_client": [
            {
              "client_id": "537766565560-l6n3nni0hv7buvrlk8havd2m4nkcp8in.apps.googleusercontent.com",
              "client_type": 3
            }
          ]
        }
      }
    }
  ],
  "configuration_version": "1"
}